%YAML 1.1
%TAG !u! tag:unity3d.com,2011:
--- !u!78 &1
TagManager:
  serializedVersion: 2
  tags:
  - rojo
  - azul
  - violeta
  - amarillo
  - cambiadorColor
  layers:
  - Default
  - TransparentFX
  - Ignore Raycast
  - whatIsGround
  - Water
  - UI
  - 
  - 
  - 
  - 
  - 
  - 
  - 
  - 
  - 
  - 
  - 
  - 
  - 
  - 
  - 
  - 
  - 
  - 
  - 
  - 
  - 
  - 
  - 
  - 
  - 
  - 
  m_SortingLayers:
  - name: Default
    uniqueID: 0
    locked: 0
  - name: PlayerLY
    uniqueID: 1608291867
    locked: 0
